Homework: Simulation
…
  return(deck = return_deck)
}

# First deal
deck <- update_deal(set_deck, note = 1) 
# Find set
deck <- remove_set(deck, note = 1)
# Update dealt cards
deck <- update_deal(deck, note = 2)
# Find set
deck <- remove_set(deck, note = 2)

deck

## # A tibble: 81 x 8
##      num color  shape   fill  card_id card_location deal_note remove_note
##    <int> <chr>  <chr>   <chr>   <int> <chr>             <dbl>       <dbl>
##  1     1 green  diamond empty       1 table                 1          NA
##  2     1 purple tilde   lines      17 table                 1          NA
##  3     2 green  diamond lines      29 table                 1          NA
##  4     2 green  tilde   solid      36 table                 1          NA
##  5     2 purple tilde   empty      43 table                 1          NA
##  6     2 red    oval    lines      50 table                 1          NA
##  7     3 purple diamond empty      64 table                 1          NA
##  8     3 red    oval    solid      78 table                 1          NA
##  9     3 purple diamond solid      66 table                 2          NA
## 10     2 purple diamond solid      39 discard               1           2
## #  with 71 more rows
…
  return(deck)
}

res <- set_game()
res

## # A tibble: 81 x 8
##      num color  shape   fill  card_id card_location deal_note remove_note
##    <int> <chr>  <chr>   <chr>   <int> <chr>             <dbl>       <dbl>
##  1     3 red    diamond solid      75 table                15          NA
##  2     2 red    oval    lines      50 table                19          NA
##  3     3 green  tilde   lines      62 table                22          NA
##  4     3 red    oval    solid      78 table                23          NA
##  5     2 red    diamond empty      46 table                24          NA
##  6     1 purple tilde   lines      17 table                25          NA
##  7     2 green  diamond empty      28 table                25          NA
##  8     2 purple oval    lines      41 table                26          NA
##  9     3 red    tilde   lines      80 table                26          NA
## 10     1 purple diamond solid      12 discard              23          26
## #  with 71 more rows
…
